^C:\USERS\SLEK\SOURCE\REPOS\SKILLBOX\18\MODULE8\DEBUG\MODULE8.OBJ
C:\USERS\SLEK\SOURCE\REPOS\SKILLBOX\18\MODULE8\DEBUG\MODULE8.EXE
C:\USERS\SLEK\SOURCE\REPOS\SKILLBOX\18\MODULE8\DEBUG\MODULE8.ILK
C:\USERS\SLEK\SOURCE\REPOS\SKILLBOX\18\MODULE8\DEBUG\MODULE8.PDB
